2014-08-28 14:11:10.318 myApp[10811:70b] Multi-tasking -> Device: YES, App: YES
2014-08-28 14:11:10.323 myApp[10811:70b] Unlimited access to network resources
2014-08-28 14:11:10.338 myApp[10811:70b] [CDVTimer][keyboard] 0.075996ms
2014-08-28 14:11:10.339 myApp[10811:70b] CDVPlugin class CDVStatusBar (pluginName: statusbar) does not exist.
2014-08-28 14:11:10.339 myApp[10811:70b] [CDVTimer][statusbar] 0.402033ms
2014-08-28 14:11:10.339 myApp[10811:70b] [CDVTimer][TotalPluginStartup] 1.321971ms
2014-08-28 14:11:10.450 myApp[10811:70b] Resetting plugins due to page load.
2014-08-28 14:11:10.565 myApp[10811:70b] Finished load of: file:///Users/jhoots/Library/Application%20Support/iPhone%20Simulator/7.1/Applications/AD4DA106-4BCC-4CA9-9107-A55A2DA5E656/myApp.app/www/index.html#/app/playlists
2014-08-28 15:07:16.861 myApp[11716:70b] Multi-tasking -> Device: YES, App: YES
2014-08-28 15:07:16.866 myApp[11716:70b] Unlimited access to network resources
2014-08-28 15:07:16.878 myApp[11716:70b] [CDVTimer][keyboard] 0.049949ms
2014-08-28 15:07:16.879 myApp[11716:70b] CDVPlugin class CDVStatusBar (pluginName: statusbar) does not exist.
2014-08-28 15:07:16.879 myApp[11716:70b] [CDVTimer][statusbar] 0.317991ms
2014-08-28 15:07:16.879 myApp[11716:70b] [CDVTimer][TotalPluginStartup] 1.036942ms
2014-08-28 15:07:16.909 myApp[11716:70b] Resetting plugins due to page load.
2014-08-28 15:07:16.994 myApp[11716:70b] Finished load of: file:///Users/jhoots/Library/Application%20Support/iPhone%20Simulator/7.1/Applications/AD4DA106-4BCC-4CA9-9107-A55A2DA5E656/myApp.app/www/index.html#/app/playlists
2014-08-28 15:18:00.194 slidebox[12017:70b] Multi-tasking -> Device: YES, App: YES
2014-08-28 15:18:00.199 slidebox[12017:70b] Unlimited access to network resources
2014-08-28 15:18:00.206 slidebox[12017:70b] Fix applied for database locations?: YES
2014-08-28 15:18:00.219 slidebox[12017:70b] [CDVTimer][keyboard] 0.068963ms
2014-08-28 15:18:00.219 slidebox[12017:70b] CDVPlugin class CDVStatusBar (pluginName: statusbar) does not exist.
2014-08-28 15:18:00.220 slidebox[12017:70b] [CDVTimer][statusbar] 0.309944ms
2014-08-28 15:18:00.220 slidebox[12017:70b] [CDVTimer][TotalPluginStartup] 1.087010ms
2014-08-28 15:18:00.248 slidebox[12017:70b] Resetting plugins due to page load.
2014-08-28 15:18:00.331 slidebox[12017:70b] Finished load of: file:///Users/jhoots/Library/Application%20Support/iPhone%20Simulator/7.1/Applications/E8568295-BB61-4652-91F5-E069FB9FEDB0/slidebox.app/www/index.html#/app/playlists
